{
    "prepare_queue": {
        "installed": [],
        "uninstalled": []
    },
    "config_munge": {
        "files": {}
    },
    "installed_plugins": {
        "cordova-plugin-whitelist": {
            "PACKAGE_NAME": "com.example.idealSoftwareSystem"
        },
        "cordova-plugin-tts": {
            "PACKAGE_NAME": "com.example.idealSoftwareSystem"
        },
        "cordova-plugin-network-information": {
            "PACKAGE_NAME": "com.example.idealSoftwareSystem"
        },
        "com.red_folder.phonegap.plugin.backgroundservice": {
            "PACKAGE_NAME": "com.example.idealSoftwareSystem"
        },
        "cordova-sqlite-storage": {
            "PACKAGE_NAME": "com.example.idealSoftwareSystem"
        },
        "at.oneminutedistraction.phonenumber": {
            "PACKAGE_NAME": "com.example.idealSoftwareSystem"
        },
        "org.loicknuchel.cordova.deviceaccounts": {
            "PACKAGE_NAME": "com.example.idealSoftwareSystem"
        },
        "cordova-plugin-device": {
            "PACKAGE_NAME": "com.example.idealSoftwareSystem"
        },
        "cordova-plugin-android-permissions": {
            "PACKAGE_NAME": "com.example.idealSoftwareSystem"
        }
    },
    "dependent_plugins": {}
}